[
  {
   "category": "sast",
    "name": "Cipher with no integrity",
    "message": "Cipher with no integrity",
    "description": "The cipher does not provide data integrity",
    "cve": "e6449b89335daf53c0db4c0219bc1634:CIPHER_INTEGRITY",
    "severity": "Medium",
    "confidence": "High",
    "location": {
      "file": "maven/src/main/java/com/gitlab/security_products/tests/App.java",
      "start_line": 29,
      "end_line": 29,
      "class": "com.gitlab.security_products.tests.App",
      "method": "insecureCypher"
    },
    "scanner": {
      "id": "find_sec_bugs",
      "name": "Find Security Bugs"
    },
    "identifiers": [
      {
        "type": "find_sec_bugs_type",
        "name": "Find Security Bugs-CIPHER_INTEGRITY",
        "value": "CIPHER_INTEGRITY",
        "url": "https://find-sec-bugs.github.io/bugs.htm#CIPHER_INTEGRITY"
      },
      {
        "type": "cwe",
        "name": "CWE-353",
        "value": "353",
        "url": "https://cwe.mitre.org/data/definitions/353.html"
      }
    ],
    "priority": "Medium",
    "file": "maven/src/main/java/com/gitlab/security_products/tests/App.java",
    "line": 29,
    "url": "https://find-sec-bugs.github.io/bugs.htm#CIPHER_INTEGRITY",
    "tool": "find_sec_bugs"
  },
  {
    "category": "sast",
    "message": "Use of insecure MD2, MD4, or MD5 hash function.",
    "cve": "python/imports/imports-aliases.py:cb203b465dffb0cb3a8e8bd8910b84b93b0a5995a938e4b903dbb0cd6ffa1254:B303",
    "severity": "Medium",
    "confidence": "High",
    "location": {
      "file": "python/imports/imports-aliases.py",
      "start_line": 11,
      "end_line": 11
    },
    "scanner": {
      "id": "bandit",
      "name": "Bandit"
    },
    "identifiers": [
      {
        "type": "bandit_test_id",
        "name": "Bandit Test ID B303",
        "value": "B303"
      },
      {
        "type": "cwe",
        "name": "CWE-353",
        "value": "353",
        "url": "https://cwe.mitre.org/data/definitions/353.html"
      }
    ],
    "priority": "Medium",
    "file": "python/imports/imports-aliases.py",
    "line": 11,
    "tool": "bandit"
  },
    {
    "category": "sast",
    "name": "Unescaped parameter value",
    "message": "Unescaped parameter value",
    "cve": "26b8b0ad586712d41ac6877e2292c6da7aa4760078add7fd23edf5b7a1bcb699",
    "confidence": "High",
    "location": {
      "file": "rails5/app/views/widget/show.html.erb",
      "start_line": 1
    },
    "scanner": {
      "id": "brakeman",
      "name": "Brakeman"
    },
    "identifiers": [
      {
        "type": "brakeman_warning_code",
        "name": "Brakeman Warning Code 2",
        "value": "2",
        "url": "https://brakemanscanner.org/docs/warning_types/cross-site_scripting/"
      }
    ],
    "file": "rails5/app/views/widget/show.html.erb",
    "line": 1,
    "url": "https://brakemanscanner.org/docs/warning_types/cross-site_scripting/",
    "tool": "brakeman"

  }
]
